{
  "tasks": [
    {
      "task_id": 1,
      "user_id": 1,
      "title": "Buy groceries",
      "description": "Milk, Bread, Eggs",
      "due_date": "2023-06-10",
      "priority": 1,
      "status": "pending",
      "created_at": "2023-06-08T12:00:00Z",
      "updated_at": "2023-06-08T12:00:00Z"
    },
    {
      "task_id": 2,
      "user_id": 1,
      "title": "Finish project",
      "description": "Complete the final report",
      "due_date": "2023-06-15",
      "priority": 2,
      "status": "in progress",
      "created_at": "2023-06-08T12:00:00Z",
      "updated_at": "2023-06-08T12:00:00Z"
    },
    {
      "task_id": 3,
      "user_id": 2,
      "title": "Plan vacation",
      "description": "Research destinations and book flights",
      "due_date": "2023-06-20",
      "priority": 3,
      "status": "pending",
      "created_at": "2023-06-08T12:00:00Z",
      "updated_at": "2023-06-08T12:00:00Z"
    }
  ]
}